{
    "KPlugin": {
        "Description": "Search and replace in documents, folders, or projects",
        "Description[az]": "SənədlərdəŞ qovluqlarda və ya layihələrdə axtarımaq və əvəzləmək",
        "Description[bg]": "Търсене и заместване в документи, папки или проекти",
        "Description[ca@valencia]": "Busca i substitució en documents, carpetes o projectes",
        "Description[ca]": "Cerca i substitució en documents, carpetes o projectes",
        "Description[cs]": "Najít a nahradit v dokumentech, složkách nebo projektech",
        "Description[de]": "Suchen und Ersetzen in Dokumenten, Ordnern oder Projekten",
        "Description[el]": "Αναζήτηση και αντικατάσταση σε έγγραφα, φακέλους ή έργα",
        "Description[en_GB]": "Search and replace in documents, folders, or projects",
        "Description[es]": "Buscar y sustituir en documentos, carpetas o proyectos",
        "Description[eu]": "Bilatu eta ordeztu dokumentuetan, karpetetan, edo proiektuetan",
        "Description[fi]": "Etsi ja korvaa tiedostoissa, kansioissa tai projekteissa",
        "Description[fr]": "Rechercher et remplacer dans les documents, les dossiers ou les projets",
        "Description[hu]": "Keresés és csere dokumentumokban, mappákban és projektekben",
        "Description[ia]": "Cerca e reimplacia in documentos,  dossieres , o projectos",
        "Description[it]": "Cerca e sostituisci nei documenti, nelle cartelle o nei progetti",
        "Description[ko]": "문서, 폴더, 프로젝트에서 찾아 바꾸기",
        "Description[nl]": "Zoeken en vervangen in documenten, mappen of projecten",
        "Description[pl]": "Znajdź i zamień w dokumentach, katalogach lub projektach",
        "Description[pt]": "Pesquisa e substituição em documentos, pastas ou projectos",
        "Description[pt_BR]": "Pesquisar e substituir em documentos, pastas ou projetos",
        "Description[ru]": "Поиск и замена в документах, папках или проектах",
        "Description[sl]": "Poišči in zamenjaj v dokumentih, mapah ali projektih",
        "Description[sv]": "Sök och ersätt i dokument, kataloger eller projekt",
        "Description[tr]": "Projelerde, klasörlerde ve belgelerde bul ve değiştir",
        "Description[uk]": "Пошук з заміною у відкритих документах,теках або проєктах",
        "Description[vi]": "Tìm kiếm và thay thế trong tài liệu, thư mục, hay dự án",
        "Description[x-test]": "xxSearch and replace in documents, folders, or projectsxx",
        "Description[zh_CN]": "在文档、文件夹或项目中搜索并替换",
        "Name": "Search & Replace",
        "Name[az]": "Axtarın və əvəzləyin",
        "Name[bg]": "Търсене и заместване",
        "Name[ca@valencia]": "Busca i substituïx",
        "Name[ca]": "Cerca i substitueix",
        "Name[cs]": "Najít a nahradit",
        "Name[de]": "Suchen & Ersetzen",
        "Name[el]": "Αναζήτηση & αντικατάσταση",
        "Name[en_GB]": "Search & Replace",
        "Name[es]": "Buscar y sustituir",
        "Name[eu]": "Bilatu eta ordeztu",
        "Name[fi]": "Etsi ja korvaa",
        "Name[fr]": "Chercher et remplacer",
        "Name[hu]": "Keresés és csere",
        "Name[ia]": "Cerca & Reimplacia",
        "Name[it]": "Cerca e sostituisci",
        "Name[ka]": "ძებნა და ჩანაცვლება",
        "Name[ko]": "찾아 바꾸기",
        "Name[my]": "ရှာပြီး အစားထိုးမည်",
        "Name[nl]": "Zoeken en vervangen",
        "Name[pl]": "Znajdź i zamień",
        "Name[pt]": "Pesquisa & Substituição",
        "Name[pt_BR]": "Pesquisar e substituir",
        "Name[ru]": "Поиск и замена",
        "Name[sk]": "Hľadať a nahradiť",
        "Name[sl]": "Poišči in zamenjaj",
        "Name[sv]": "Sök och ersätt",
        "Name[tr]": "Bul ve Değiştir",
        "Name[uk]": "Пошук з заміною",
        "Name[vi]": "Tìm kiếm & thay thế",
        "Name[x-test]": "xxSearch & Replacexx",
        "Name[zh_CN]": "搜索和替换",
        "ServiceTypes": [
            "KTextEditor/Plugin"
        ]
    }
}
