{
    "GenericName": "Replicode",
    "GenericName[ar]": "ريپلكود Replicode",
    "GenericName[ast]": "Replicode",
    "GenericName[az]": "Replicode",
    "GenericName[ca@valencia]": "Replicode",
    "GenericName[ca]": "Replicode",
    "GenericName[cs]": "Replicode",
    "GenericName[da]": "Replicode",
    "GenericName[de]": "Replicode",
    "GenericName[el]": "Replicode",
    "GenericName[en_GB]": "Replicode",
    "GenericName[es]": "Replicode",
    "GenericName[et]": "Replicode",
    "GenericName[eu]": "Replicode",
    "GenericName[fa]": "جایگزینی",
    "GenericName[fi]": "Replicode",
    "GenericName[fr]": "Replicode",
    "GenericName[gl]": "Replicode",
    "GenericName[hu]": "Replicode",
    "GenericName[ia]": "Replicode",
    "GenericName[id]": "Replicode",
    "GenericName[it]": "Replicode",
    "GenericName[ko]": "Replicode",
    "GenericName[nb]": "Replicode",
    "GenericName[nds]": "Replicode",
    "GenericName[nl]": "Replicode",
    "GenericName[nn]": "Replicode",
    "GenericName[pl]": "Replicode",
    "GenericName[pt]": "Replicode",
    "GenericName[pt_BR]": "Replicode",
    "GenericName[ro]": "Replicode",
    "GenericName[ru]": "Replicode",
    "GenericName[sk]": "Replikovať",
    "GenericName[sl]": "Replicode",
    "GenericName[sr@ijekavian]": "Репликод",
    "GenericName[sr@ijekavianlatin]": "Replicode",
    "GenericName[sr@latin]": "Replicode",
    "GenericName[sr]": "Репликод",
    "GenericName[sv]": "Replicode",
    "GenericName[tr]": "Replicode",
    "GenericName[uk]": "Replicode",
    "GenericName[vi]": "Replicode",
    "GenericName[x-test]": "xxReplicodexx",
    "GenericName[zh_CN]": "Replicode",
    "GenericName[zh_TW]": "Replicode",
    "KPlugin": {
        "Description": "Replicode (constructivist AI language and runtime)",
        "Description[az]": "Replicode (konstruktivist Sİ dili və iş vaxtı)",
        "Description[bg]": "Replicode (конструктивистки език и време за изпълнение на ИИ)",
        "Description[ca@valencia]": "Replicode (llenguatge i executable constructivista d'IA)",
        "Description[ca]": "Replicode (llenguatge i executable constructivista d'IA)",
        "Description[de]": "Replicode - eine konstruktivistische KI-Programmiersprache und Laufzeitumgebung",
        "Description[el]": "Replicode (κονστρουκτιβιστική γλώσσα AI και περιβάλλον εκτέλεσης)",
        "Description[en_GB]": "Replicode (constructivist AI language and runtime)",
        "Description[es]": "Replicode (lenguaje de IA constructivista y biblioteca en tiempo de ejecución)",
        "Description[eu]": "Replicode (AI lengoaia eta exekuzio garaiko liburutegi eraikitzailea)",
        "Description[fi]": "Replicode (konstruktivistinen tekoälykieli ja -ajonaikaisosa)",
        "Description[fr]": "Replicode (langage et exécutif IA constructive)",
        "Description[hu]": "Replicode (konstruktivista MI nyelv és futtatókörnyezet)",
        "Description[ia]": "Replicode (Linguage de AI constructivista e tempore de execution)",
        "Description[it]": "Replicode (linguaggio costruttivista per IA ed l'esecuzione)",
        "Description[ko]": "Replicode(건설적 AI 언어 및 런타임)",
        "Description[nl]": "Replicode (constructivistische AI taal en runtime)",
        "Description[pl]": "Replicode (konstruktywistyczny język AI i biblioteka uruchomieniowa)",
        "Description[pt]": "Replicode (ambiente e linguagem de IA construtivista)",
        "Description[pt_BR]": "Replicode (linguagem construtivista AI em tempo real)",
        "Description[ru]": "Replicode (конструктивистский язык программирования для искусственного интеллекта и среда выполнения)",
        "Description[sl]": "Replicode (konstrukcijski jezik umetne inteligence in izvajalno okolje)",
        "Description[sv]": "Replicode (konstruktivistiskt AI-språk och körprogram)",
        "Description[tr]": "Replicode (yapıcı AI dili ve çalıştırıcısı)",
        "Description[uk]": "Replicode (конструктивістська мова та середовище виконання ШІ)",
        "Description[vi]": "Replicode (ngôn ngữ và môi trường chạy AI theo xu hướng tạo dựng)",
        "Description[x-test]": "xxReplicode (constructivist AI language and runtime)xx",
        "Description[zh_CN]": "Replicode (构建主义的 AI 语言和运行时)",
        "Name": "Replicode",
        "Name[ar]": "ريپلكود",
        "Name[az]": "Təkrar kodlama",
        "Name[bg]": "Репликод",
        "Name[ca@valencia]": "Replicode",
        "Name[ca]": "Replicode",
        "Name[cs]": "Replicode",
        "Name[de]": "Replicode",
        "Name[el]": "Replicode",
        "Name[en_GB]": "Replicode",
        "Name[es]": "Replicode",
        "Name[eu]": "Replicode",
        "Name[fi]": "Replicode",
        "Name[fr]": "Replicode",
        "Name[hu]": "Replicode",
        "Name[ia]": "Replicode",
        "Name[it]": "Replicode",
        "Name[ka]": "Replicode",
        "Name[ko]": "Replicode",
        "Name[my]": "ရီပလီကုတ်",
        "Name[nl]": "Replicode",
        "Name[pl]": "Replicode",
        "Name[pt]": "Replicode",
        "Name[pt_BR]": "Replicode",
        "Name[ru]": "Replicode",
        "Name[sk]": "Replicode",
        "Name[sl]": "Replicode",
        "Name[sv]": "Replicode",
        "Name[tr]": "Replicode",
        "Name[uk]": "Replicode",
        "Name[vi]": "Replicode",
        "Name[x-test]": "xxReplicodexx",
        "Name[zh_CN]": "Replicode",
        "ServiceTypes": [
            "KTextEditor/Plugin"
        ]
    }
}
